Introduction to R and the Tidyverse
…
## # A tibble: 7 x 7
##   seqnbr subjid   age   fev height   sex smoke
##    <dbl>  <dbl> <dbl> <dbl>  <dbl> <dbl> <dbl>
## 1    401  18841    14  4.27   72.5     1     0
## 2    450  32741    13  4.22   74       1     0
## 3    464  37241    13  4.88   73       1     0
## 4    517  49541    13  5.08   74       1     0
## 5    550  59941    14  4.27   72.5     1     0
## 6    632  37441    17  5.63   73       1     0
## 7    636  44241    16  3.64   73.5     1     0

fev_data %>%
  filter(age == 6)

## # A tibble: 37 x 7
##    seqnbr subjid   age   fev height   sex smoke
##     <dbl>  <dbl> <dbl> <dbl>  <dbl> <dbl> <dbl>
##  1      7   1752     6  1.92   58       0     0
##  2      8   1753     6  1.42   56       0     0
##  3     11   1952     6  1.60   53       0     0
##  4     18   3551     6  1.88   53       0     0
##  5     49  10841     6  1.65   55       1     0
##  6     55  12241     6  1.63   54       1     0
##  7     63  14251     6  1.48   51       0     0
##  8     66  14541     6  1.75   57.5     1     0
##  9     80  16151     6  1.72   53       0     0
## 10     82  16252     6  1.70   53       0     0
## # ... with 27 more rows

fev_data %>%
  filter(age != 20)

## # A tibble: 654 x 7
##    seqnbr subjid   age   fev height   sex smoke
##     <dbl>  <dbl> <dbl> <dbl>  <dbl> <dbl> <dbl>
##  1      1    301     9  1.71   57       0     0
##  2      2    451     8  1.72   67.5     0     0
##  3      3    501     7  1.72   54.5     0     0
##  4      4    642     9  1.56   53       1     0
##  5      5    901     9  1.90   57       1     0
##  6      6   1701     8  2.34   61       0     0
##  7      7   1752     6  1.92   58       0     0
##  8      8   1753     6  1.42   56       0     0
##  9      9   1901     8  1.99   58.5     0     0
## 10     10   1951     9  1.94   60       0     0
## # ... with 644 more rows

fev_data %>%
  filter(age <= 20)

## # A tibble: 654 x 7
##    seqnbr subjid   age   fev height   sex smoke
##     <dbl>  <dbl> <dbl> <dbl>  <dbl> <dbl> <dbl>
##  1      1    301     9  1.71   57       0     0
##  2      2    451     8  1.72   67.5     0     0
##  3      3    501     7  1.72   54.5     0     0
##  4      4    642     9  1.56   53       1     0
##  5      5    901     9  1.90   57       1     0
##  6      6   1701     8  2.34   61       0     0
##  7      7   1752     6  1.92   58       0     0
##  8      8   1753     6  1.42   56       0     0
##  9      9   1901     8  1.99   58.5     0     0
## 10     10   1951     9  1.94   60       0     0
## # ... with 644 more rows
…
Selecting columns

fev_data %>%
  select(fev, height, age)

## # A tibble: 654 x 3
##      fev height   age
##    <dbl>  <dbl> <dbl>
##  1  1.71   57       9
##  2  1.72   67.5     8
##  3  1.72   54.5     7
##  4  1.56   53       9
##  5  1.90   57       9
##  6  2.34   61       8
##  7  1.92   58       6
##  8  1.42   56       6
##  9  1.99   58.5     8
## 10  1.94   60       9
## # ... with 644 more rows

fev_data %>%
  select(-seqnbr, -subjid)

## # A tibble: 654 x 5
##      age   fev height   sex smoke
##    <dbl> <dbl>  <dbl> <dbl> <dbl>
##  1     9  1.71   57       0     0
##  2     8  1.72   67.5     0     0
##  3     7  1.72   54.5     0     0
##  4     9  1.56   53       1     0
##  5     9  1.90   57       1     0
##  6     8  2.34   61       0     0
##  7     6  1.92   58       0     0
##  8     6  1.42   56       0     0
##  9     8  1.99   58.5     0     0
## 10     9  1.94   60       0     0
## # ... with 644 more rows
…
fev_data %>%
  filter(age == 14, smoke != 0) %>%
  summarise(mean(fev), sd(fev))

## # A tibble: 1 x 2
##   `mean(fev)` `sd(fev)`
##         <dbl>     <dbl>
## 1        3.43     0.976

To get the average FEV for both smokers and non-smokers we dont need to repeat for smoke==0. We can create a grouping variable:

fev_data %>%
  group_by(smoke)

## # A tibble: 654 x 7
## # Groups:   smoke [2]
##    seqnbr subjid   age   fev height   sex smoke
##     <dbl>  <dbl> <dbl> <dbl>  <dbl> <dbl> <dbl>
##  1      1    301     9  1.71   57       0     0
##  2      2    451     8  1.72   67.5     0     0
##  3      3    501     7  1.72   54.5     0     0
##  4      4    642     9  1.56   53       1     0
##  5      5    901     9  1.90   57       1     0
##  6      6   1701     8  2.34   61       0     0
##  7      7   1752     6  1.92   58       0     0
##  8      8   1753     6  1.42   56       0     0
##  9      9   1901     8  1.99   58.5     0     0
## 10     10   1951     9  1.94   60       0     0
## # ... with 644 more rows
…
> Problem 1: Which subjects are male and which are female? (i.e.what does sex == 1 mean?)

# Add your code here!

> Problem 2: Why do smokers appear to have better lung function (higher forced expiratory volume - FEV)?

# Add your code here!

Useful function: rename

fev_data %>%
  rename(ID = subjid)

## # A tibble: 654 x 7
##    seqnbr    ID   age   fev height   sex smoke
##     <dbl> <dbl> <dbl> <dbl>  <dbl> <dbl> <dbl>
##  1      1   301     9  1.71   57       0     0
##  2      2   451     8  1.72   67.5     0     0
##  3      3   501     7  1.72   54.5     0     0
##  4      4   642     9  1.56   53       1     0
##  5      5   901     9  1.90   57       1     0
##  6      6  1701     8  2.34   61       0     0
##  7      7  1752     6  1.92   58       0     0
##  8      8  1753     6  1.42   56       0     0
##  9      9  1901     8  1.99   58.5     0     0
## 10     10  1951     9  1.94   60       0     0
## # ... with 644 more rows

Mutate: compute new column

fev_data %>%
  mutate(heightdiff = height - mean(height))

## # A tibble: 654 x 8
##    seqnbr subjid   age   fev height   sex smoke heightdiff
##     <dbl>  <dbl> <dbl> <dbl>  <dbl> <dbl> <dbl>      <dbl>
##  1      1    301     9  1.71   57       0     0     -4.14 
##  2      2    451     8  1.72   67.5     0     0      6.36 
##  3      3    501     7  1.72   54.5     0     0     -6.64 
##  4      4    642     9  1.56   53       1     0     -8.14 
##  5      5    901     9  1.90   57       1     0     -4.14 
##  6      6   1701     8  2.34   61       0     0     -0.144
##  7      7   1752     6  1.92   58       0     0     -3.14 
##  8      8   1753     6  1.42   56       0     0     -5.14 
##  9      9   1901     8  1.99   58.5     0     0     -2.64 
## 10     10   1951     9  1.94   60       0     0     -1.14 
## # ... with 644 more rows
…
